processor_tb.vcd
$date
	Tue Oct 24 18:54:53 2023
$end
$version
	Icarus Verilog
$end
$timescale
	1s
$end
$scope module processor_tb $end
$var wire 4 ! acc_out [3:0] $end
$var wire 4 " alu_out [3:0] $end
$var wire 4 # bits [3:0] $end
$var wire 5 $ decoded [4:0] $end
$var wire 4 % id_bus [3:0] $end
$var wire 4 & imm_val [3:0] $end
$var wire 4 ' reg_wy [3:0] $end
$var wire 1 ( rst $end
$var wire 4 ) to_alu [3:0] $end
$var reg 1 * clk $end
$var reg 1 + reset $end
$scope module licznik $end
$var wire 1 , clk $end
$var wire 1 - rst $end
$var reg 4 . data [3:0] $end
$upscope $end
$scope module pamiec $end
$var wire 4 / addr [3:0] $end
$var reg 8 0 data [7:0] $end
$upscope $end
$scope module id $end
$var wire 4 1 instr [3:0] $end
$var reg 5 2 decoded [4:0] $end
$var reg 1 3 reset $end
$upscope $end
$scope module jedn $end
$var wire 4 4 in1 [3:0] $end
$var wire 4 5 in2 [3:0] $end
$var wire 2 6 op [1:0] $end
$var reg 4 7 out [3:0] $end
$upscope $end
$scope module akumulator $end
$var wire 1 8 ce $end
$var wire 1 9 clk $end
$var wire 4 : in [3:0] $end
$var reg 4 ; out [3:0] $end
$upscope $end
$scope module rejestr $end
$var wire 1 < ce $end
$var wire 1 = clk $end
$var wire 4 > in [3:0] $end
$var reg 4 ? out [3:0] $end
$upscope $end
$scope module mux $end
$var wire 4 @ in1 [3:0] $end
$var wire 4 A in2 [3:0] $end
$var wire 1 B sel $end
$var reg 4 C out [3:0] $end
$upscope $end
$upscope $end
$enddefinitions $end
#0
$dumpvars
bx C
0B
b0 A
bx @
bx ?
bx >
1=
0<
bx ;
bx :
19
08
bx 7
b10 6
bx 5
bx 4
03
b10 2
b1100 1
b11000000 0
b0 /
b0 .
1-
1,
1+
0*
bx )
0(
bx '
b0 &
b1100 %
b10 $
b0 #
bx "
bx !
$end
#5
0=
09
0,
1*
#10
b101 C
b101 )
b101 :
1B
18
b1 6
b10101 2
b10101 $
b101 &
b101 A
b1101 %
b1101 1
b11010101 0
b1 .
b1 #
b1 /
1=
19
1,
0-
0*
0+
#15
0=
09
0,
1*
#20
0B
b10 6
b101 C
b101 )
b101 :
b110 2
b110 $
b0 &
b0 A
b1001 %
b1001 1
b110 7
b110 "
b110 >
b10010000 0
b101 ;
b101 !
b101 4
b101 @
b10 .
b10 #
b10 /
1=
19
1,
0*
#25
0=
09
0,
1*
#30
b11 .
b11 #
b11 /
1=
19
1,
0*
#35
0=
09
0,
1*
#40
b101 7
b101 "
b101 >
1<
08
b1 6
b1001 2
b1001 $
b1011 %
b1011 1
b10110000 0
b100 .
b100 #
b100 /
1=
19
1,
0*
#45
0=
09
0,
1*
#50
b110 7
b110 "
b110 >
0<
18
b10 6
b110 2
b110 $
b1001 %
b1001 1
b10010000 0
b101 ?
b101 '
b101 5
b101 .
b101 #
b101 /
1=
19
1,
0*
#55
0=
09
0,
1*
#60
b110 .
b110 #
b110 /
1=
19
1,
0*
#65
0=
09
0,
1*
#70
b1010 7
b1010 "
b1010 >
b0 6
b100 2
b100 $
b101 %
b101 1
b1010000 0
b111 .
b111 #
b111 /
1=
19
1,
0*
#75
0=
09
0,
1*
#80
b110 7
b110 "
b110 >
b10 6
b110 2
b110 $
b1001 %
b1001 1
b10010000 0
b1000 .
b1000 #
b1000 /
1=
19
1,
0*
#85
0=
09
0,
1*
#90
b1001 .
b1001 #
b1001 /
1=
19
1,
0*
#95
0=
09
0,
1*
#100
b101 7
b101 "
b101 >
b11 6
b111 2
b111 $
b1010 %
b1010 1
b10100000 0
b1010 .
b1010 #
b1010 /
1=
19
1,
0*
#105
0=
09
0,
1*
#110
b1010 7
b1010 "
b1010 >
b0 6
b100 2
b100 $
b101 %
b101 1
b1010000 0
b1011 .
b1011 #
b1011 /
1=
19
1,
0*
#115
0=
09
0,
1*
#120
b110 7
b110 "
b110 >
b10 6
b110 2
b110 $
b1001 %
b1001 1
b10010000 0
b1100 .
b1100 #
b1100 /
1=
19
1,
0*
#125
0=
09
0,
1*
#130
b1101 .
b1101 #
b1101 /
1=
19
1,
0*
#135
0=
09
0,
1*
#140
1-
08
13
1(
b10 2
b10 $
b1110 %
b1110 1
b11100000 0
b1110 .
b1110 #
b1110 /
1=
19
1,
0*
#145
0=
09
0,
1*
#150
0-
03
0(
b1100 %
b1100 1
b11000000 0
b0 .
b0 #
b0 /
1=
19
1,
0*
#155
0=
09
0,
1*
#160
b101 7
b101 "
b101 >
1B
18
b1 6
b10101 2
b10101 $
b101 &
b101 A
b1101 %
b1101 1
b11010101 0
b1 .
b1 #
b1 /
1=
19
1,
0*
#165
0=
09
0,
1*
#170
b110 7
b110 "
b110 >
0B
b10 6
b101 C
b101 )
b101 :
b110 2
b110 $
b0 &
b0 A
b1001 %
b1001 1
b10010000 0
b10 .
b10 #
b10 /
1=
19
1,
0*
#175
0=
09
0,
1*
#180
b11 .
b11 #
b11 /
1=
19
1,
0*
#185
0=
09
0,
1*
#190
b101 7
b101 "
b101 >
1<
08
b1 6
b1001 2
b1001 $
b1011 %
b1011 1
b10110000 0
b100 .
b100 #
b100 /
1=
19
1,
0*
#195
0=
09
0,
1*
#200
b110 7
b110 "
b110 >
0<
18
b10 6
b110 2
b110 $
b1001 %
b1001 1
b10010000 0
b101 .
b101 #
b101 /
1=
19
1,
0*
#205
0=
09
0,
1*
#210
b110 .
b110 #
b110 /
1=
19
1,
0*
#215
0=
09
0,
1*
#220
b1010 7
b1010 "
b1010 >
b0 6
b100 2
b100 $
b101 %
b101 1
b1010000 0
b111 .
b111 #
b111 /
1=
19
1,
0*
#225
0=
09
0,
1*
#230
b110 7
b110 "
b110 >
b10 6
b110 2
b110 $
b1001 %
b1001 1
b10010000 0
b1000 .
b1000 #
b1000 /
1=
19
1,
0*
#235
0=
09
0,
1*
#240
b1001 .
b1001 #
b1001 /
1=
19
1,
0*
#245
0=
09
0,
1*
#250
b101 7
b101 "
b101 >
b11 6
b111 2
b111 $
b1010 %
b1010 1
b10100000 0
b1010 .
b1010 #
b1010 /
1=
19
1,
0*
#255
0=
09
0,
1*
#260
b1010 7
b1010 "
b1010 >
b0 6
b100 2
b100 $
b101 %
b101 1
b1010000 0
b1011 .
b1011 #
b1011 /
1=
19
1,
0*
#265
0=
09
0,
1*
#270
b110 7
b110 "
b110 >
b10 6
b110 2
b110 $
b1001 %
b1001 1
b10010000 0
b1100 .
b1100 #
b1100 /
1=
19
1,
0*
#275
0=
09
0,
1*
#280
b1101 .
b1101 #
b1101 /
1=
19
1,
0*
#285
0=
09
0,
1*
#290
1-
08
13
1(
b10 2
b10 $
b1110 %
b1110 1
b11100000 0
b1110 .
b1110 #
b1110 /
1=
19
1,
0*
#295
0=
09
0,
1*
#300
0-
03
0(
b1100 %
b1100 1
b11000000 0
b0 .
b0 #
b0 /
1=
19
1,
0*
#305
0=
09
0,
1*
#310
b101 7
b101 "
b101 >
1B
18
b1 6
b10101 2
b10101 $
b101 &
b101 A
b1101 %
b1101 1
b11010101 0
b1 .
b1 #
b1 /
1=
19
1,
0*
